Statistical Models
…
Analysis of variance (ANOVA)

dat <- tibble(
  group = rep(c("parent", "control"), 
              c(length(parents), length(control))),
  rt = c(parents, control))

dat

# A tibble: 100 × 2
   group     rt
   <chr>  <dbl>
 1 parent  475.
 2 parent  502.
 3 parent  494.
 4 parent  494.
 5 parent  516.
 6 parent  403.
 7 parent  490.
 8 parent  517.
 9 parent  481.
10 parent  549.
# ℹ 90 more rows
…
