Linear mixed-effects modeling with crossed random factors
…
NO pseudoreplications: no random slopes

YES pseudoreplications: all interactions/main effects get slopes

between-unit factors (or interactions involving them) never get random slopes

Barr, D. J. (2013). Random effects structure for testing interactions in linear mixed-effects models. Frontiers in Psychology, 4, 328.

Barr, D. J., Levy, R., Scheepers, C., & Tily, H. J. (2013). Random effects structure for confirmatory hypothesis testing: Keep it maximal. Journal of Memory and Language, 68, 255-278.

determining the design from data

three way design, subjects only random factor

# A tibble: 128 x 5
   subj_id A     B     C          DV
     <int> <chr> <chr> <chr>   <dbl>
 1       5 A1    B1    C2     4.80  
 2       5 A1    B2    C1     7.40  
 3       1 A2    B1    C2     0.444 
 4       6 A2    B1    C2     3.97  
 5       4 A1    B1    C2     2.90  
 6       4 A1    B2    C1    -0.0699
 7       3 A1    B2    C2     2.75  
 8       1 A2    B2    C2     2.86  
 9       3 A1    B2    C2     0.452 
10       8 A1    B1    C1    -0.694 
# … with 118 more rows

count(dat1, subj_id, A, B, C)

# A tibble: 32 x 5
   subj_id A     B     C         n
     <int> <chr> <chr> <chr> <int>
 1       1 A2    B1    C1        4
 2       1 A2    B1    C2        4
 3       1 A2    B2    C1        4
 4       1 A2    B2    C2        4
 5       2 A2    B1    C1        4
 6       2 A2    B1    C2        4
 7       2 A2    B2    C1        4
 8       2 A2    B2    C2        4
 9       3 A1    B1    C1        4
10       3 A1    B1    C2        4
# … with 22 more rows

\(A\) is between, \(BC\) within, 4 obs / cell

DV ~ A * B * C + (B * C | subj_id)

example with crossed random factors

DV ~ A * B * C + (? | subj_id) + (? | item_id)

dat2

# A tibble: 128 x 6
   subj_id item_id A     B     C         DV
     <int>   <int> <chr> <chr> <chr>  <dbl>
 1       7      13 A1    B2    C2     1.41 
 2       3       6 A1    B1    C2     3.62 
 3       3       1 A2    B2    C2     2.79 
 4       2       4 A1    B2    C1    -1.41 
 5       4      10 A2    B1    C1     0.971
 6       7       5 A2    B2    C2     8.12 
 7       7      16 A2    B1    C1     7.66 
 8       6       3 A2    B1    C1     3.00 
 9       7      10 A1    B1    C2     0.644
10       6       9 A2    B2    C2    10.7  
# … with 118 more rows

by-subject random effects

dat2 %>%
  count(subj_id, A, B, C)

# A tibble: 64 x 5
   subj_id A     B     C         n
     <int> <chr> <chr> <chr> <int>
 1       1 A1    B1    C1        2
 2       1 A1    B1    C2        2
 3       1 A1    B2    C1        2
 4       1 A1    B2    C2        2
 5       1 A2    B1    C1        2
 6       1 A2    B1    C2        2
 7       1 A2    B2    C1        2
 8       1 A2    B2    C2        2
 9       2 A1    B1    C1        2
10       2 A1    B1    C2        2
# … with 54 more rows

DV ~ A * B * C + (A * B * C | subj_id) + (? | item_id)

by-stimulus random effects

dat2 %>%
  count(item_id, A, B, C)

# A tibble: 128 x 5
   item_id A     B     C         n
     <int> <chr> <chr> <chr> <int>
 1       1 A1    B1    C1        1
 2       1 A1    B1    C2        1
 3       1 A1    B2    C1        1
 4       1 A1    B2    C2        1
 5       1 A2    B1    C1        1
 6       1 A2    B1    C2        1
 7       1 A2    B2    C1        1
 8       1 A2    B2    C2        1
 9       2 A1    B1    C1        1
10       2 A1    B1    C2        1
# … with 118 more rows
…
